<?xml version="1.0" encoding="utf-8"?>
<!-- Generator: Adobe Illustrator 22.0.1, SVG Export Plug-In . SVG Version: 6.00 Build 0)  -->
<svg version="1.1" id="Calque_1" xmlns="http://www.w3.org/2000/svg" xmlns:xlink="http://www.w3.org/1999/xlink" x="0px" y="0px"
	 viewBox="0 0 80 74.5" style="enable-background:new 0 0 80 74.5;" xml:space="preserve">
<style type="text/css">
	.st0{fill:#FFC500;}
	.st1{fill:#FFE000;}
	.st2{fill:#FFFFFF;}
	.st3{fill:#808080;}
</style>
<g>
	<polygon class="st1" points="37.2,29.9 62.3,58.8 74.7,45.2 36.8,8.8 6.8,38.7 	"/>
	<polygon class="st0" points="36,33.9 5.3,42.8 58.3,59.5 	"/>
</g>
</svg>
